// Jest Snapshot v1, https://goo.gl/fbAQLP

exports[`LoginButton.vue matches snapshot 1`] = `
<div
  class="buttonHolder centered small"
>
  <button
    class="login"
    type="submit"
  >
    
  </button>
</div>
`;
