// Jest Snapshot v1, https://goo.gl/fbAQLP

exports[`Select.vue matches snapshot 1`] = `
<div>
  <h2>
    Sort 
  </h2>
   
  <select
    name="Sort notes"
    title="Sort by"
  >
    <option
      value="title"
    >
      Title
    </option>
     
    <option
      value="date"
    >
      Created
    </option>
     
    <option
      value="edited"
    >
      Last Edited
    </option>
     
    <!---->
  </select>
</div>
`;
